class Riotgun : WeaponBase replaces Shotgun {
	Default {
		Weapon.SelectionOrder 1400;
		Weapon.AmmoType1 "Shell";
		Weapon.AmmoGive1 6;
		Weapon.AmmoUse1 1;
		Weapon.AmmoType2 "LoadedShell";
		Weapon.AmmoUse2 1;
		Weapon.UpSound "weapons/riotgun/pickup";
		Inventory.PickupMessage "You got the Riot Gun!";
		Inventory.PickupSound "weapons/riotgun/pickup";
		Obituary "%o was silenced by %k's riot gun";
		+WEAPON.AMMO_OPTIONAL;
		Tag "Riotgun";
	}

	States {
		Ready:
			RIOT A 0 A_TakeInventory("ShotgunReloading", 1);
			RIOT A 0 A_JumpIfInventory("GrenadeToss",1,"ThrowGrenade");
			RIOT A 0 A_JumpIfInventory("TossAmmo",1,"TossingAmmo");
			RIOT A 1 {
        A_WeaponOffset(0,32,WOF_INTERPOLATE);
        A_WeaponReady(WRF_ALLOWRELOAD);
      }
			Loop;
		LowerWeapon:
			RGSW FE 1 A_WeaponOffset(0,38,WOF_INTERPOLATE);
			RGSW D 1 A_WeaponOffset(0,40,WOF_INTERPOLATE);
			RGSW C 1 A_WeaponOffset(0,38,WOF_INTERPOLATE);
			RGSW B 1 A_WeaponOffset(0,36,WOF_INTERPOLATE);
			RGSW A 1 {
				A_WeaponOffset(0,32);
				A_TakeInventory("ShotgunReloading",1);
			}
			Goto Ready;
		Deselect:
			RIOT A 0 A_JumpIfInventory("ShotgunReloading",1,"DeselectFromReload");
			RGSW A 1 A_WeaponOffset(0,36,WOF_INTERPOLATE);
			RGSW B 1 A_WeaponOffset(-7,36,WOF_INTERPOLATE);
			RGSW C 1 A_WeaponOffset(-12,38,WOF_INTERPOLATE);
			RGSW D 1 A_WeaponOffset(-20,40,WOF_INTERPOLATE);
			RGSW E 1 A_WeaponOffset(-40,38,WOF_INTERPOLATE);
			RGSW F 1 A_WeaponOffset(-80,38,WOF_INTERPOLATE);
			RGSW F 1 A_WeaponOffset(-100,40,WOF_INTERPOLATE);
			RGSW F 1 A_WeaponOffset(-180,55,WOF_INTERPOLATE);
			RGSW F 1 A_WeaponOffset(-300,200,WOF_INTERPOLATE);
			RGSW F 0 A_WeaponOffset(67,130,WOF_INTERPOLATE);
			RGSW F 1 A_Lower;
			Wait;
		DeselectFromReload:
			RGLS I 1 A_WeaponOffset(-40,38,WOF_INTERPOLATE);
			RGLS I 1 A_WeaponOffset(-80,34,WOF_INTERPOLATE);
			RGLS I 1 A_WeaponOffset(-100,42,WOF_INTERPOLATE);
			RGLS I 1 A_WeaponOffset(-180,55,WOF_INTERPOLATE);
			RGLS I 1 A_WeaponOffset(-300,200,WOF_INTERPOLATE);
			RGLS I 0 A_WeaponOffset(67, 130,WOF_INTERPOLATE);
			RGLS I 1 A_Lower;
			Wait;
		Select:
			RIOT A 0 A_TakeInventory("ShotgunReloading", 1);
			RGUP ABCDEFGHIJ 1 A_WeaponReady(WRF_NoFire|WRF_NoSwitch);
      TNT1 A 0 A_GunFlash();
      RGUP J 1 A_Raise;
			Goto Ready;
		Fire:
			RIOT A 0 A_JumpIfInventory("ShotgunReloading", 1, "ReloadEnd");
			RIOT A 0 A_JumpIfInventory("LoadedShell", 1, 1);
			Goto Reload;
			TNT1 A 0 A_JumpIfInventory("GrenadeToss", 1, "ThrowGrenade");
			TNT1 A 0 A_JumpIfInventory("TossAmmo", 1, "TossingAmmo");
			TNT1 AAAA 0 A_WeaponReady(WRF_NoFire|WRF_NoSwitch);
			TNT1 A 0 {
				A_TakeInventory("LoadedShell", 1, TIF_NOTAKEINFINITE);
				A_AlertMonsters();
				A_StartSound("weapons/riotgun/fire", CHAN_WEAPON);
				A_GunFlash("FlashFire");
			}
			TNT1 A 0 A_JumpIf(CallACS("GetDisableTracers", 0, 0, 0)==2, 8);
			TNT1 AAAAAAA 0 A_FireProjectile("Tracer", random(-2,2), 0, 0, -13, 0, random(-1,1));
			TNT1 A 0 A_JumpIfInventory("ClassicShotgunMode", 1, "FireClassic");
			Goto FireNormal;
			FireClassic:
				TNT1 A 0 A_FireBullets(4,4,7,6,"ShotgunPuff",0);
				TNT1 A 0 A_ZoomFactor(0.995);
				RIOT D 1 {
          A_WeaponReady(WRF_NoFire|WRF_NoSwitch);
					A_WeaponOffset(0,33,WOF_INTERPOLATE);
					A_SetPitch(pitch-1.5);
				}
				Goto FireContinue;
			FireNormal:
				TNT1 A 0 A_FireBullets(4,4,7,5,"ShotgunPuff",0);
				TNT1 A 0 A_ZoomFactor(0.995);
				RIOT D 1 {
          A_WeaponReady(WRF_NoFire|WRF_NoSwitch);
          A_WeaponOffset(0,32,WOF_INTERPOLATE);
					A_SetPitch(pitch-1.5);
				}
			FireContinue:
				TNT1 A 0 A_ZoomFactor(0.99);
				TNT1 A 0 A_SetPitch(pitch-0.75);
				TNT1 A 0 A_FireProjectile("MuzzSpawn",0,0,0,0);
				RIOT D 1 {
          A_WeaponReady(WRF_NoFire|WRF_NoSwitch);
					A_WeaponOffset(0,37,WOF_INTERPOLATE);
					A_SetPitch(pitch-0.25);
				}
				TNT1 A 0 A_ZoomFactor(0.985);
				TNT1 A 0 A_SetPitch(pitch+1.0);
				RIOT D 1 {
          A_WeaponReady(WRF_NoFire|WRF_NoSwitch);
					A_WeaponOffset(0,40,WOF_INTERPOLATE);
				}
				TNT1 A 0 A_ZoomFactor(0.99);
				TNT1 A 0 A_SetPitch(pitch+1.0);
				RIOT B 1 {
          A_WeaponReady(WRF_NoFire|WRF_NoSwitch);
					A_WeaponOffset(0,41,WOF_INTERPOLATE) ;
				}
				TNT1 A 0 A_ZoomFactor(0.995);
				RIOT C 1 {
          A_WeaponReady(WRF_NoFire|WRF_NoSwitch);
					A_WeaponOffset(0,39,WOF_INTERPOLATE);
					A_SetPitch(pitch+0.5);
				}
				TNT1 A 0 A_ZoomFactor(1.00);
				TNT1 A 0 A_JumpIf(CallACS("GetDisableFancySmoke", 0, 0, 0)==1, 6);
				TNT1 AAAA 0 A_FireProjectile("GunSmokeSpawner",0,0,0,0);
				TNT1 A 0 A_FireProjectile("SmokeSpawner",0,0,0,0);
				RIOT C 1 {
          A_WeaponReady(WRF_NoFire|WRF_NoSwitch);
					A_WeaponOffset(0,37,WOF_INTERPOLATE);
				}
				RIOT B 1 {
          A_WeaponReady(WRF_NoFire|WRF_NoSwitch);
					A_WeaponOffset(0,35,WOF_INTERPOLATE);
				}
				RIOT B 1 {
          A_WeaponReady(WRF_NoFire|WRF_NoSwitch);
					A_WeaponOffset(0,34,WOF_INTERPOLATE);
				}
				RIOT D 1 {
          A_WeaponReady(WRF_NoFire|WRF_NoSwitch);
					A_WeaponOffset(0,33,WOF_INTERPOLATE);
			  }
				RIOT D 1 {
          A_WeaponReady(WRF_NoFire|WRF_NoSwitch);
					A_WeaponOffset(0,32,WOF_INTERPOLATE);
				}
				TNT1 A 0 A_JumpIfInventory("ClassicShotgunMode", 1, "ClassicPump");
				TNT1 A 0 A_StartSound("weapons/riotgun/pump", CHAN_6);
				RIOT EEFF 1 {
          A_WeaponReady(WRF_NoFire|WRF_NoSwitch);
          A_WeaponOffset(0,32,WOF_INTERPOLATE);
        }
				TNT1 A 0 A_JumpIf(CallACS("GetDisableFancySmoke", 0, 0, 0)==1, 4);
				TNT1 AAA 0 A_FireProjectile("GunSmokeSpawner",0,0,0,0);
				RIOT F 1 {
          A_WeaponReady(WRF_NoFire|WRF_NoSwitch);
					A_WeaponOffset(0,34,WOF_INTERPOLATE);
					A_FireProjectile("ShotgunCasingSpawner",5,0,6,-23);
				}
				RIOT F 1 {
          A_WeaponReady(WRF_NoFire|WRF_NoSwitch);
					A_WeaponOffset(0,36,WOF_INTERPOLATE);
				}
				RIOT F 1 {
          A_WeaponReady(WRF_NoFire|WRF_NoSwitch);
					A_WeaponOffset(0,34,WOF_INTERPOLATE);
				}
				RIOT AAAAA 1 {
          A_WeaponReady(WRF_NoFire|WRF_NoSwitch);
					A_WeaponOffset(0,32,WOF_INTERPOLATE);
				}
				RIOT A 0 A_ReFire;
				Goto Ready;
		FlashFire:
			BOOF A 2 Bright A_Light1();
			BOOF B 1 Bright A_Light2;
			TNT1 A 1 A_Light0();
			Stop;
		Reload:
			RIOT A 0 A_JumpIf((CountInv("LoadedShell") == 9 || CountInv("Shell") == 0) && CountInv("ClassicShotgunMode"), "ClassicPumpOnDemand");
			RIOT A 0 A_JumpIf(CountInv("LoadedShell") == 9 && !CountInv("ClassicShotgunMode"), "Ready");
			RIOT A 0 A_JumpIfNoAmmo("NoAmmo");
			TNT1 A 0 A_JumpIfInventory("ReloadingEnabled", 1, "ReloadNow");
			Goto ReloadWork;
		ReloadNow:
			TNT1 A 0 A_GiveInventory("ShotgunReloading",1);
			RGSW ABCDEF 1 A_WeaponReady(WRF_NoFire);
			TNT1 A 0 A_JumpIfInventory("ChamberNotPumped", 1, "ChamberPump");
			TNT1 A 0 {
				If(CountInv("LoadedShell") < 1) {
					A_GiveInventory("ChamberNotPumped", 1);
				}
			}
			ShellInsert:
				TNT1 A 0 A_JumpIfInventory("Shell", 1, 1);
				Goto ReloadEnd;
				TNT1 A 0 A_StartSound("weapons/riotgun/load", CHAN_7);
				RGLS ABCD 1 A_WeaponReady(WRF_NoFire|WRF_NoSwitch);
			ReloadWork:
				TNT1 A 0 A_JumpIfInventory("ChamberNotPumped", 1, "ChamberJump");
				TNT1 A 0 A_GiveInventory("LoadedShell", 1);
				TNT1 A 0 A_TakeInventory("Shell", 1);
				ChamberJump:
					TNT1 A 0 A_JumpIf(CountInv("ReloadingEnabled") == 0 && CountInv("LoadedShell") < 9 && CountInv("Shell") > 0, "ReloadWork");
					TNT1 A 0 A_JumpIf(CountInv("ReloadingEnabled") == 0, "Ready");
					RGLS EFGH 1 A_WeaponReady(WRF_NoFire|WRF_NoSwitch);
					RGLS I 1 {
						if (CountInv("ChamberNotPumped") > 0) {
							A_WeaponReady(WRF_NoFire|WRF_NoSwitch);
						} else {
							A_WeaponReady(1);
						}
					}
					TNT1 A 0 A_JumpIfInventory("GrenadeToss",1,"LowerWeaponGrenade");
					TNT1 A 0 A_JumpIfInventory("TossAmmo",1,"TossingAmmo");
					RGLS I 1 {
						if (CountInv("ChamberNotPumped") > 0) {
							A_WeaponReady(WRF_NoFire|WRF_NoSwitch);
						} else {
							A_WeaponReady(1);
						}
					}
					TNT1 A 0 A_JumpIfInventory("GrenadeToss",1,"LowerWeaponGrenade");
					TNT1 A 0 A_JumpIfInventory("TossAmmo",1,"TossingAmmo");
				ChamberCheck:
					TNT1 A 0 A_JumpIfInventory("ChamberNotPumped", 1, "ChamberPump");
					TNT1 A 0 A_JumpIfInventory("LoadedShell", 0, "ReloadEnd");
					Goto ShellInsert;
		ChamberPump:
			TNT1 A 0 A_TakeInventory("ChamberNotPumped", 1);
			TNT1 A 0 A_GiveInventory("LoadedShell", 1);
			TNT1 A 0 A_TakeInventory("Shell", 1);
			RGSW FE 1 A_StartSound("weapons/riotgun/cock", CHAN_WEAPON);
			RGSW G 2 A_WeaponReady(WRF_NoFire|WRF_NoSwitch);
			RGSW H 2 {
				A_WeaponOffset(1,36,WOF_INTERPOLATE);
				A_WeaponReady(WRF_NoFire|WRF_NoSwitch);
			}
			RGSW H 2 {
				A_WeaponOffset(2,38,WOF_INTERPOLATE);
				A_WeaponReady(WRF_NoFire|WRF_NoSwitch);
			}
			RGSW I 1 {
				A_WeaponOffset(2,40,WOF_INTERPOLATE);
				A_WeaponReady(WRF_NoFire|WRF_NoSwitch);
			}
			RGSW J 3 {
				A_WeaponOffset(5,36,WOF_INTERPOLATE);
				A_WeaponReady(WRF_NoFire|WRF_NoSwitch);
			}
			RGSW D 4 {
				A_WeaponOffset(0,32,WOF_INTERPOLATE);
				A_WeaponReady(WRF_NoFire|WRF_NoSwitch);
			}
			RGSW EF 2 {
				A_WeaponOffset(0,38,WOF_INTERPOLATE);
				A_WeaponReady(WRF_NoFire|WRF_NoSwitch);
			}
			Goto ShellInsert;
		ReloadEnd:
			TNT1 A 0 A_JumpIfInventory("ChamberNotPumped", 1, "ChamberLoadEnd");
			RGSW F 2 {
				A_WeaponOffset(0,38,WOF_INTERPOLATE);
				A_WeaponReady(WRF_NoFire|WRF_NoSwitch);
			}
			RGSW E 2 {
				A_WeaponOffset(0,38,WOF_INTERPOLATE);
				A_WeaponReady(WRF_NoFire|WRF_NoSwitch);
			}
		ChamberLoadEnd:
			TNT1 A 0 A_TakeInventory("ChamberNotPumped", 1);
			RGSW D 1 {
				A_WeaponOffset(0,40,WOF_INTERPOLATE);
				A_WeaponReady(WRF_NoFire|WRF_NoSwitch);
			}
			RGSW C 1 {
				A_WeaponOffset(0,38,WOF_INTERPOLATE);
				A_WeaponReady(WRF_NoFire|WRF_NoSwitch);
			}
			RGSW B 1 {
				A_WeaponOffset(0,36,WOF_INTERPOLATE);
				A_WeaponReady(WRF_NoFire|WRF_NoSwitch);
			}
			RGSW A 1 {
				A_WeaponOffset(0,32,WOF_INTERPOLATE);
				A_TakeInventory("ShotgunReloading",1);
			}
			RIOT A 1 A_WeaponReady(1);
			TNT1 A 0 A_ReFire;
			Goto Ready;
		ClassicPump:
			RGSW ABC 1 A_WeaponReady(WRF_NoFire|WRF_NoSwitch);
			RGSW DE 2 A_WeaponReady(WRF_NoFire|WRF_NoSwitch);
			TNT1 A 0 A_StartSound("weapons/riotgun/cock", CHAN_WEAPON);
			RGSW F 2 A_WeaponReady(WRF_NoFire|WRF_NoSwitch);
			TNT1 A 0 {
				If (CountInv("LoadedShell") < 9) {
					A_FireProjectile("ShotgunCasingSpawner",0,0,-17,-35);
				}
			}
			RGSW H 1 {
				A_WeaponOffset(1,36,WOF_INTERPOLATE);
				A_WeaponReady(WRF_NoFire|WRF_NoSwitch);
			}
			RGSW H 2 {
				A_WeaponOffset(2,38,WOF_INTERPOLATE);
				A_WeaponReady(WRF_NoFire|WRF_NoSwitch);
			}
			RGSW I 2 {
				A_WeaponOffset(2,40,WOF_INTERPOLATE);
				A_WeaponReady(WRF_NoFire|WRF_NoSwitch);
			}
			RGSW J 2 {
				A_WeaponOffset(5,36,WOF_INTERPOLATE);
				A_WeaponReady(WRF_NoFire|WRF_NoSwitch);
			}
			RGSW E 1 {
				A_WeaponOffset(0,39,WOF_INTERPOLATE);
				A_WeaponReady(WRF_NoFire|WRF_NoSwitch);
			}
			RGSW D 1 {
				A_WeaponOffset(0,40,WOF_INTERPOLATE);
				A_WeaponReady(WRF_NoFire|WRF_NoSwitch);
			}
			RGSW C 1 {
				A_WeaponOffset(0,38,WOF_INTERPOLATE);
				A_WeaponReady(WRF_NoFire|WRF_NoSwitch);
			}
			RGSW B 1 {
				A_WeaponOffset(0,36,WOF_INTERPOLATE);
				A_WeaponReady(WRF_NoFire|WRF_NoSwitch);
			}
			RGSW A 1 {
				A_WeaponOffset(0,32,WOF_INTERPOLATE);
				A_WeaponReady(WRF_NoFire|WRF_NoSwitch);
			}
			RIOT A 5 A_WeaponReady(WRF_NoFire|WRF_NoSwitch);
			TNT1 A 0 A_ReFire;
			Goto Ready;
		ClassicPumpOnDemand:
			RGSW ABC 1 A_WeaponReady(WRF_NoFire|WRF_NoSwitch);
			RGSW DE 2 A_WeaponReady(WRF_NoFire|WRF_NoSwitch);
			TNT1 A 0 A_StartSound("weapons/riotgun/cock", CHAN_WEAPON);
			RGSW F 2 A_WeaponReady(WRF_NoFire|WRF_NoSwitch);
			RGSW H 1 {
				A_WeaponOffset(1,36,WOF_INTERPOLATE);
				A_WeaponReady(WRF_NoFire|WRF_NoSwitch);
			}
			RGSW H 2 {
				A_WeaponOffset(2,38,WOF_INTERPOLATE);
				A_WeaponReady(WRF_NoFire|WRF_NoSwitch);
			}
			RGSW I 2 {
				A_WeaponOffset(2,40,WOF_INTERPOLATE);
				A_WeaponReady(WRF_NoFire|WRF_NoSwitch);
			}
			RGSW J 2 {
				A_WeaponOffset(5,36,WOF_INTERPOLATE);
				A_WeaponReady(WRF_NoFire|WRF_NoSwitch);
			}
			RGSW E 1 {
				A_WeaponOffset(0,39,WOF_INTERPOLATE);
				A_WeaponReady(WRF_NoFire|WRF_NoSwitch);
			}
			RGSW D 1 {
				A_WeaponOffset(0,40,WOF_INTERPOLATE);
				A_WeaponReady(WRF_NoFire|WRF_NoSwitch);
			}
			RGSW C 1 {
				A_WeaponOffset(0,38,WOF_INTERPOLATE);
				A_WeaponReady(WRF_NoFire|WRF_NoSwitch);
			}
			RGSW B 1 {
				A_WeaponOffset(0,36,WOF_INTERPOLATE);
				A_WeaponReady(WRF_NoFire|WRF_NoSwitch);
			}
			RGSW A 1 {
				A_WeaponOffset(0,32,WOF_INTERPOLATE);
				A_WeaponReady(WRF_NoFire|WRF_NoSwitch);
			}
			RIOT A 5 A_WeaponReady(WRF_NoFire|WRF_NoSwitch);
			TNT1 A 0 A_ReFire;
			Goto Ready;
		LowerWeaponGrenade:
			RGSW FE 1 A_WeaponOffset(0,38,WOF_INTERPOLATE);
			RGSW D 1 A_WeaponOffset(0,40,WOF_INTERPOLATE);
			RGSW C 1 A_WeaponOffset(0,38,WOF_INTERPOLATE);
			RGSW B 1 A_WeaponOffset(0,36,WOF_INTERPOLATE);
			RGSW A 1 {
				A_WeaponOffset(0,32);
				A_TakeInventory("ShotgunReloading",1);
			}
		ThrowGrenade:
			TNT1 A 0 A_TakeInventory("GrenadeToss",1);
			TNT1 A 0 A_JumpIfInventory("HandGrenadeAmmo",1,1);
			Goto Ready;
			RIOT F 1 A_WeaponOffset(-2, 34,WOF_INTERPOLATE);
			RIOT F 1 A_WeaponOffset(-10, 47,WOF_INTERPOLATE);
			RIOT F 1 A_WeaponOffset(-32, 69,WOF_INTERPOLATE);
			RIOT F 1 A_WeaponOffset(-67, 100,WOF_INTERPOLATE);
			TNT1 A 1 A_TakeInventory("ShotgunReloading", 1);
			TOSS ABCCD 1 A_WeaponReady(WRF_NoFire|WRF_NoSwitch);
			TNT1 A 0 A_WeaponReady(WRF_NoFire|WRF_NoSwitch);
			TOSD D 1 A_StartSound("GPIN");
			TOSS EF 1 A_WeaponReady(WRF_NoFire|WRF_NoSwitch);
			TNT1 A 8 A_WeaponReady(WRF_NoFire|WRF_NoSwitch);
			TNT1 A 0 A_WeaponReady(WRF_NoFire|WRF_NoSwitch);
			TOSS G 1 A_StartSound("GTOSS",CHAN_AUTO);
			TNT1 A 0 A_Takeinventory("HandGrenadeAmmo",1);
			TNT1 A 0 A_WeaponReady(WRF_NoFire|WRF_NoSwitch);
			TOSS H 1 A_FireProjectile("ThrownGrenade",0,false,7,3,true,-6);
			TNT1 A 0 A_SetPitch(+2 + pitch );
			TOSS I 1 A_WeaponReady(WRF_NoFire|WRF_NoSwitch);
			TNT1 A 0 A_SetPitch(-1 + pitch);
			TOSS J 1 A_WeaponReady(WRF_NoFire|WRF_NoSwitch);
			TNT1 A 0 A_SetPitch(-1 + pitch );
			TOSS K 1 A_WeaponReady(WRF_NoFire|WRF_NoSwitch);
			TOSS L 1 A_WeaponReady(WRF_NoFire|WRF_NoSwitch);
			TNT1 A 9 A_WeaponOffset(-67, 100,WOF_INTERPOLATE);
			RIOT F 1 {
				A_WeaponOffset(-67, 100,WOF_INTERPOLATE);
				A_StartSound("weapons/riotgun/raise", CHAN_AUTO);
			}
			RIOT F 1 A_WeaponOffset(-32, 69,WOF_INTERPOLATE);
			RIOT F 1 A_WeaponOffset(-10, 47,WOF_INTERPOLATE);
			RIOT F 1 A_WeaponOffset(-2, 34,WOF_INTERPOLATE);
			TNT1 A 0 A_TakeInventory("GrenadeToss",1);
			Goto Ready;
		NoAmmo:
			"####" A 0 A_StartSound("bulletup",0);
			"####" A 0 A_ReFire("NoAmmoFireLoop");
			NoAmmoReloadLoop:
				"####" A 1 A_WeaponReady(WRF_NOFIRE);
				"####" A 0 A_JumpIf(GetPlayerInput(INPUT_BUTTONS) & BT_RELOAD, "NoAmmoReloadLoop");
				Goto Ready;
			NoAmmoFireLoop:
				"####" A 1 A_WeaponReady(WRF_NOFIRE);
				"####" A 0 A_ReFire("NoAmmoFireLoop");
				Goto Ready;
		Spawn:
			SHAT A -1;
			Stop;
	}
}

class LoadedShell : Ammo {
	Default {
		+INVENTORY.IGNORESKILL;
		Inventory.MaxAmount 9;
	}
}

class ShotgunReloading : Inventory {
	Default {
		Inventory.Maxamount 1;
	}
}

class ChamberNotPumped : Inventory {
	Default {
		Inventory.Maxamount 1;
	}
}

class ClassicShotgunMode : Inventory {
	Default {
		Inventory.Maxamount 1;
	}
}
